{
	"info": {
		"_postman_id": "83e3fba2-2b27-49c3-9063-d1636f7ce37c",
		"name": "EAD",
		"schema": "https://schema.getpostman.com/json/collection/v2.1.0/collection.json",
		"_exporter_id": "4011284"
	},
	"item": [
		{
			"name": "AUTH",
			"item": [
				{
					"name": "SIGNUP",
					"event": [
						{
							"listen": "test",
							"script": {
								"exec": [
									"pm.test(\"Status code is 200\", function () {\r",
									"    pm.response.to.have.status(201);\r",
									"});\r",
									"var response = JSON.parse(responseBody);\r",
									"\r",
									"var id_created_user = response.userId;\r",
									"pm.environment.set(\"id_created_user\",id_created_user );\r",
									"\r",
									""
								],
								"type": "text/javascript"
							}
						},
						{
							"listen": "prerequest",
							"script": {
								"exec": [
									"pm.environment.set(\"random\", Math.random()*5)"
								],
								"type": "text/javascript"
							}
						}
					],
					"request": {
						"method": "POST",
						"header": [
							{
								"key": "Content-Type",
								"value": "application/json",
								"type": "text"
							}
						],
						"body": {
							"mode": "raw",
							"raw": "{\r\n    \"userName\":\"rossyfranca{{random}}\",\r\n    \"email\":\"rossyfrancadev{{random}}@gmail.com\",\r\n    \"password\":\"123\",\r\n    \"fullName\":\"Rossywan França\",\r\n    \"cpf\": \"11111111144\",\r\n    \"imageUrl\":\"teste\"\r\n\r\n}",
							"options": {
								"raw": {
									"language": "json"
								}
							}
						},
						"url": {
							"raw": "http://localhost:8087/auth/signup",
							"protocol": "http",
							"host": [
								"localhost"
							],
							"port": "8087",
							"path": [
								"auth",
								"signup"
							]
						}
					},
					"response": []
				}
			]
		},
		{
			"name": "USERS",
			"item": [
				{
					"name": "GET-ALL",
					"event": [
						{
							"listen": "test",
							"script": {
								"exec": [
									"pm.test(\"Status code is 200\", function () {\r",
									"    pm.response.to.have.status(200);\r",
									"});"
								],
								"type": "text/javascript"
							}
						}
					],
					"request": {
						"method": "GET",
						"header": [],
						"url": {
							"raw": "http://localhost:8087/users",
							"protocol": "http",
							"host": [
								"localhost"
							],
							"port": "8087",
							"path": [
								"users"
							]
						}
					},
					"response": []
				},
				{
					"name": "GET-BY-ID",
					"event": [
						{
							"listen": "test",
							"script": {
								"exec": [
									"pm.test(\"Status code is 200\", function () {\r",
									"    pm.response.to.have.status(200);\r",
									"});"
								],
								"type": "text/javascript"
							}
						}
					],
					"request": {
						"method": "GET",
						"header": [],
						"url": {
							"raw": "http://localhost:8087/users/{{id_created_user}}",
							"protocol": "http",
							"host": [
								"localhost"
							],
							"port": "8087",
							"path": [
								"users",
								"{{id_created_user}}"
							]
						}
					},
					"response": []
				},
				{
					"name": "GET-BY-ID NOT FOUND EXCEPTION",
					"event": [
						{
							"listen": "test",
							"script": {
								"exec": [
									"pm.test(\"Status code is 404\", function () {\r",
									"    pm.response.to.have.status(404);\r",
									"    \r",
									"});\r",
									"\r",
									"pm.test(\"Message error\", ()=>{\r",
									"    pm.expect(responseBody).to.equals(\"User not found\")\r",
									"});"
								],
								"type": "text/javascript"
							}
						}
					],
					"request": {
						"method": "GET",
						"header": [],
						"url": {
							"raw": "http://localhost:8087/users/52be12e0-ad47-4c60-a847-a19b45624555",
							"protocol": "http",
							"host": [
								"localhost"
							],
							"port": "8087",
							"path": [
								"users",
								"52be12e0-ad47-4c60-a847-a19b45624555"
							]
						}
					},
					"response": []
				},
				{
					"name": "DELETE",
					"event": [
						{
							"listen": "test",
							"script": {
								"exec": [
									"pm.test(\"Status code is 200\", function () {\r",
									"    pm.response.to.have.status(200);\r",
									"});"
								],
								"type": "text/javascript"
							}
						}
					],
					"request": {
						"method": "DELETE",
						"header": [],
						"url": {
							"raw": "http://localhost:8087/users/{{id_created_user}}",
							"protocol": "http",
							"host": [
								"localhost"
							],
							"port": "8087",
							"path": [
								"users",
								"{{id_created_user}}"
							]
						}
					},
					"response": []
				}
			]
		}
	]
}